ALU/alu1bit.vcd
$date
  Fri Oct 25 14:25:52 2019
$end
$version
  GHDL v0
$end
$timescale
  1 fs
$end
$var reg 1 ! a_sig $end
$var reg 1 " b_sig $end
$var reg 1 # less_sig $end
$var reg 1 $ cin_sig $end
$var reg 1 % result_sig $end
$var reg 1 & cout_sig $end
$var reg 1 ' set_sig $end
$var reg 1 ( overflow_sig $end
$var reg 1 ) ainvert_sig $end
$var reg 1 * binvert_sig $end
$var reg 2 + operation_sig[1:0] $end
$scope module a $end
$var reg 1 , a $end
$var reg 1 - b $end
$var reg 1 . less $end
$var reg 1 / cin $end
$var reg 1 0 result $end
$var reg 1 1 cout $end
$var reg 1 2 set $end
$var reg 1 3 overflow $end
$var reg 1 4 ainvert $end
$var reg 1 5 binvert $end
$var reg 2 6 operation[1:0] $end
$var reg 1 7 ai $end
$var reg 1 8 bi $end
$var reg 1 9 ci $end
$var reg 1 : co $end
$var reg 1 ; sum $end
$var reg 1 < ov $end
$var reg 1 = res $end
$var reg 1 > ls $end
$scope module f1 $end
$var reg 1 ? a $end
$var reg 1 @ b $end
$var reg 1 A cin $end
$var reg 1 B s $end
$var reg 1 C cout $end
$var reg 1 D sum $end
$var reg 1 E c $end
$upscope $end
$upscope $end
$enddefinitions $end
#0
0!
0"
0#
0$
0%
0&
0'
0(
0)
0*
b00 +
0,
0-
0.
0/
00
01
02
03
04
05
b00 6
07
08
09
0:
0;
0<
0=
0>
0?
0@
0A
0B
0C
0D
0E
#3000000
1!
1"
1%
1&
1(
1,
1-
10
11
13
17
18
1:
1<
1=
1?
1@
1C
1E
#13000000
0!
0%
0&
1'
0(
0,
00
01
12
03
07
0:
1;
0<
0=
0?
1B
0C
1D
0E
#23000000
1!
1%
1&
0'
1(
b01 +
1,
10
11
02
13
b01 6
17
1:
0;
1<
1=
1?
0B
1C
0D
1E
#33000000
0"
0&
1'
0(
0-
01
12
03
08
0:
1;
0<
0@
1B
0C
1D
0E
#43000000
0!
0%
0'
b10 +
0,
00
02
b10 6
07
0;
0=
0?
0B
0D
#53000000
1$
1%
1'
1(
1/
10
12
13
19
1;
1<
1=
1A
1B
1D
#63000000
1"
0$
0(
1-
0/
03
18
09
0<
1@
0A
#73000000
1$
0%
1&
0'
0(
1/
00
11
02
03
19
1:
0;
0<
0=
1A
0B
1C
0D
1E
#83000000
1!
0"
0$
1%
0&
1'
0(
1,
0-
0/
10
01
12
03
17
08
09
0:
1;
0<
1=
1?
0@
0A
1B
0C
1D
0E
#93000000
1$
0%
1&
0'
0(
1/
00
11
02
03
19
1:
0;
0<
0=
1A
0B
1C
0D
1E
#103000000
1"
0$
1(
1-
0/
13
18
09
1<
1@
0A
#113000000
1$
1%
1'
0(
1/
10
12
03
19
1;
0<
1=
1A
1B
1D
#123000000
0"
0$
0%
0'
1(
1*
0-
0/
00
02
13
15
09
0;
1<
0=
0A
0B
0D
#133000000
1#
1%
b11 +
1.
10
b11 6
1=
